[{"page":1,"pages":27,"per_page":50,"total":1330,"sourceid":"2","lastupdated":"2025-10-07"},[{"indicator":{"id":"SH.IMM.IDPT","value":"Immunization, DPT (% of children ages 12-23 months)"},"country":{"id":"ZH","value":"Africa Eastern and Southern"},"countryiso3code":"AFE","date":"2024","value":73.7351151103017,"unit":"","obs_status":"","decimal":0},{"indicator":{"id":"SH.IMM.IDPT","value":"Immunization, DPT (% of children ages 12-23 months)"},"country":{"id":"ZH","value":"Africa Eastern and Southern"},"countryiso3code":"AFE","date":"2023","value":73.7687853187293,"unit":"","obs_status":"","decimal":0},{"indicator":{"id":"SH.IMM.IDPT","value":"Immunization, DPT (% of children ages 12-23 months)"},"country":{"id":"ZH","value":"Africa Eastern and Southern"},"countryiso3code":"AFE","date":"2022","value":74.689514197023,"unit":"","obs_status":"","decimal":0},{"indicator":{"id":"SH.IMM.IDPT","value":"Immunization, DPT (% of children ages 12-23 months)"},"country":{"id":"ZH","value":"Africa Eastern and Southern"},"countryiso3code":"AFE","date":"2021","value":74.6274429632303,"unit":"","obs_status":"","decimal":0},{"indicator":{"id":"SH.IMM.IDPT","value":"Immunization, DPT (% of children ages 12-23 months)"},"country":{"id":"ZH","value":"Africa Eastern and Southern"},"countryiso3code":"AFE","date":"2020","value":76.9147193008306,"unit":"","obs_status":"","decimal":0},{"indicator":{"id":"SH.IMM.IDPT","value":"Immunization, DPT (% of children ages 12-23 months)"},"country":{"id":"ZI","value":"Africa Western and Central"},"countryiso3code":"AFW","date":"2024","value":74.3113993697597,"unit":"","obs_status":"","decimal":0},{"indicator":{"id":"SH.IMM.IDPT","value":"Immunization, DPT (% of children ages 12-23 months)"},"country":{"id":"ZI","value":"Africa Western and Central"},"countryiso3code":"AFW","date":"2023","value":74.0760897991238,"unit":"","obs_status":"","decimal":0},{"indicator":{"id":"SH.IMM.IDPT","value":"Immunization, DPT (% of children ages 12-23 months)"},"country":{"id":"ZI","value":"Africa Western and Central"},"countryiso3code":"AFW","date":"2022","value":69.7435475981296,"unit":"","obs_status":"","decimal":0},{"indicator":{"id":"SH.IMM.IDPT","value":"Immunization, DPT (% of children ages 12-23 months)"},"country":{"id":"ZI","value":"Africa Western and Central"},"countryiso3code":"AFW","date":"2021","value":69.9658060477586,"unit":"","obs_status":"","decimal":0},{"indicator":{"id":"SH.IMM.IDPT","value":"Immunization, DPT (% of children ages 12-23 months)"},"country":{"id":"ZI","value":"Africa Western and Central"},"countryiso3code":"AFW","date":"2020","value":69.027889207322,"unit":"","obs_status":"","decimal":0},{"indicator":{"id":"SH.IMM.IDPT","value":"Immunization, DPT (% of children ages 12-23 months)"},"country":{"id":"1A","value":"Arab World"},"countryiso3code":"ARB","date":"2024","value":77.052184015155,"unit":"","obs_status":"","decimal":0},{"indicator":{"id":"SH.IMM.IDPT","value":"Immunization, DPT (% of children ages 12-23 months)"},"country":{"id":"1A","value":"Arab World"},"countryiso3code":"ARB","date":"2023","value":78.8276105757745,"unit":"","obs_status":"","decimal":0},{"indicator":{"id":"SH.IMM.IDPT","value":"Immunization, DPT (% of children ages 12-23 months)"},"country":{"id":"1A","value":"Arab World"},"countryiso3code":"ARB","date":"2022","value":84.3118191809722,"unit":"","obs_status":"","decimal":0},{"indicator":{"id":"SH.IMM.IDPT","value":"Immunization, DPT (% of children ages 12-23 months)"},"country":{"id":"1A","value":"Arab World"},"countryiso3code":"ARB","date":"2021","value":82.0330250552787,"unit":"","obs_status":"","decimal":0},{"indicator":{"id":"SH.IMM.IDPT","value":"Immunization, DPT (% of children ages 12-23 months)"},"country":{"id":"1A","value":"Arab World"},"countryiso3code":"ARB","date":"2020","value":82.1404209835448,"unit":"","obs_status":"","decimal":0},{"indicator":{"id":"SH.IMM.IDPT","value":"Immunization, DPT (% of children ages 12-23 months)"},"country":{"id":"S3","value":"Caribbean small states"},"countryiso3code":"CSS","date":"2024","value":89.7367249455085,"unit":"","obs_status":"","decimal":0},{"indicator":{"id":"SH.IMM.IDPT","value":"Immunization, DPT (% of children ages 12-23 months)"},"country":{"id":"S3","value":"Caribbean small states"},"countryiso3code":"CSS","date":"2023","value":88.9159663865546,"unit":"","obs_status":"","decimal":0},{"indicator":{"id":"SH.IMM.IDPT","value":"Immunization, DPT (% of children ages 12-23 months)"},"country":{"id":"S3","value":"Caribbean small states"},"countryiso3code":"CSS","date":"2022","value":89.404248348584,"unit":"","obs_status":"","decimal":0},{"indicator":{"id":"SH.IMM.IDPT","value":"Immunization, DPT (% of children ages 12-23 months)"},"country":{"id":"S3","value":"Caribbean small states"},"countryiso3code":"CSS","date":"2021","value":88.344885440151,"unit":"","obs_status":"","decimal":0},{"indicator":{"id":"SH.IMM.IDPT","value":"Immunization, DPT (% of children ages 12-23 months)"},"country":{"id":"S3","value":"Caribbean small states"},"countryiso3code":"CSS","date":"2020","value":85.5766430933001,"unit":"","obs_status":"","decimal":0},{"indicator":{"id":"SH.IMM.IDPT","value":"Immunization, DPT (% of children ages 12-23 months)"},"country":{"id":"B8","value":"Central Europe and the Baltics"},"countryiso3code":"CEB","date":"2024","value":90.3040669330814,"unit":"","obs_status":"","decimal":0},{"indicator":{"id":"SH.IMM.IDPT","value":"Immunization, DPT (% of children ages 12-23 months)"},"country":{"id":"B8","value":"Central Europe and the Baltics"},"countryiso3code":"CEB","date":"2023","value":91.1050159798257,"unit":"","obs_status":"","decimal":0},{"indicator":{"id":"SH.IMM.IDPT","value":"Immunization, DPT (% of children ages 12-23 months)"},"country":{"id":"B8","value":"Central Europe and the Baltics"},"countryiso3code":"CEB","date":"2022","value":92.3810079639598,"unit":"","obs_status":"","decimal":0},{"indicator":{"id":"SH.IMM.IDPT","value":"Immunization, DPT (% of children ages 12-23 months)"},"country":{"id":"B8","value":"Central Europe and the Baltics"},"countryiso3code":"CEB","date":"2021","value":92.3943475446352,"unit":"","obs_status":"","decimal":0},{"indicator":{"id":"SH.IMM.IDPT","value":"Immunization, DPT (% of children ages 12-23 months)"},"country":{"id":"B8","value":"Central Europe and the Baltics"},"countryiso3code":"CEB","date":"2020","value":93.3883454067882,"unit":"","obs_status":"","decimal":0},{"indicator":{"id":"SH.IMM.IDPT","value":"Immunization, DPT (% of children ages 12-23 months)"},"country":{"id":"V2","value":"Early-demographic dividend"},"countryiso3code":"EAR","date":"2024","value":86.6976475453599,"unit":"","obs_status":"","decimal":0},{"indicator":{"id":"SH.IMM.IDPT","value":"Immunization, DPT (% of children ages 12-23 months)"},"country":{"id":"V2","value":"Early-demographic dividend"},"countryiso3code":"EAR","date":"2023","value":86.554887968918,"unit":"","obs_status":"","decimal":0},{"indicator":{"id":"SH.IMM.IDPT","value":"Immunization, DPT (% of children ages 12-23 months)"},"country":{"id":"V2","value":"Early-demographic dividend"},"countryiso3code":"EAR","date":"2022","value":87.3264511557704,"unit":"","obs_status":"","decimal":0},{"indicator":{"id":"SH.IMM.IDPT","value":"Immunization, DPT (% of children ages 12-23 months)"},"country":{"id":"V2","value":"Early-demographic dividend"},"countryiso3code":"EAR","date":"2021","value":81.3598010543278,"unit":"","obs_status":"","decimal":0},{"indicator":{"id":"SH.IMM.IDPT","value":"Immunization, DPT (% of children ages 12-23 months)"},"country":{"id":"V2","value":"Early-demographic dividend"},"countryiso3code":"EAR","date":"2020","value":82.4919185302226,"unit":"","obs_status":"","decimal":0},{"indicator":{"id":"SH.IMM.IDPT","value":"Immunization, DPT (% of children ages 12-23 months)"},"country":{"id":"Z4","value":"East Asia & Pacific"},"countryiso3code":"EAS","date":"2024","value":88.4632455132134,"unit":"","obs_status":"","decimal":0},{"indicator":{"id":"SH.IMM.IDPT","value":"Immunization, DPT (% of children ages 12-23 months)"},"country":{"id":"Z4","value":"East Asia & Pacific"},"countryiso3code":"EAS","date":"2023","value":88.7549475548269,"unit":"","obs_status":"","decimal":0},{"indicator":{"id":"SH.IMM.IDPT","value":"Immunization, DPT (% of children ages 12-23 months)"},"country":{"id":"Z4","value":"East Asia & Pacific"},"countryiso3code":"EAS","date":"2022","value":93.3015966216789,"unit":"","obs_status":"","decimal":0},{"indicator":{"id":"SH.IMM.IDPT","value":"Immunization, DPT (% of children ages 12-23 months)"},"country":{"id":"Z4","value":"East Asia & Pacific"},"countryiso3code":"EAS","date":"2021","value":86.6599723039575,"unit":"","obs_status":"","decimal":0},{"indicator":{"id":"SH.IMM.IDPT","value":"Immunization, DPT (% of children ages 12-23 months)"},"country":{"id":"Z4","value":"East Asia & Pacific"},"countryiso3code":"EAS","date":"2020","value":92.2394348310201,"unit":"","obs_status":"","decimal":0},{"indicator":{"id":"SH.IMM.IDPT","value":"Immunization, DPT (% of children ages 12-23 months)"},"country":{"id":"4E","value":"East Asia & Pacific (excluding high income)"},"countryiso3code":"EAP","date":"2024","value":87.8532947894244,"unit":"","obs_status":"","decimal":0},{"indicator":{"id":"SH.IMM.IDPT","value":"Immunization, DPT (% of children ages 12-23 months)"},"country":{"id":"4E","value":"East Asia & Pacific (excluding high income)"},"countryiso3code":"EAP","date":"2023","value":88.1850180492126,"unit":"","obs_status":"","decimal":0},{"indicator":{"id":"SH.IMM.IDPT","value":"Immunization, DPT (% of children ages 12-23 months)"},"country":{"id":"4E","value":"East Asia & Pacific (excluding high income)"},"countryiso3code":"EAP","date":"2022","value":93.025034755595,"unit":"","obs_status":"","decimal":0},{"indicator":{"id":"SH.IMM.IDPT","value":"Immunization, DPT (% of children ages 12-23 months)"},"country":{"id":"4E","value":"East Asia & Pacific (excluding high income)"},"countryiso3code":"EAP","date":"2021","value":85.9613501344106,"unit":"","obs_status":"","decimal":0},{"indicator":{"id":"SH.IMM.IDPT","value":"Immunization, DPT (% of children ages 12-23 months)"},"country":{"id":"4E","value":"East Asia & Pacific (excluding high income)"},"countryiso3code":"EAP","date":"2020","value":92.0013817947683,"unit":"","obs_status":"","decimal":0},{"indicator":{"id":"SH.IMM.IDPT","value":"Immunization, DPT (% of children ages 12-23 months)"},"country":{"id":"T4","value":"East Asia & Pacific (IDA & IBRD countries)"},"countryiso3code":"TEA","date":"2024","value":87.6600132384155,"unit":"","obs_status":"","decimal":0},{"indicator":{"id":"SH.IMM.IDPT","value":"Immunization, DPT (% of children ages 12-23 months)"},"country":{"id":"T4","value":"East Asia & Pacific (IDA & IBRD countries)"},"countryiso3code":"TEA","date":"2023","value":88.0037291047648,"unit":"","obs_status":"","decimal":0},{"indicator":{"id":"SH.IMM.IDPT","value":"Immunization, DPT (% of children ages 12-23 months)"},"country":{"id":"T4","value":"East Asia & Pacific (IDA & IBRD countries)"},"countryiso3code":"TEA","date":"2022","value":92.93045757984,"unit":"","obs_status":"","decimal":0},{"indicator":{"id":"SH.IMM.IDPT","value":"Immunization, DPT (% of children ages 12-23 months)"},"country":{"id":"T4","value":"East Asia & Pacific (IDA & IBRD countries)"},"countryiso3code":"TEA","date":"2021","value":85.7750123813101,"unit":"","obs_status":"","decimal":0},{"indicator":{"id":"SH.IMM.IDPT","value":"Immunization, DPT (% of children ages 12-23 months)"},"country":{"id":"T4","value":"East Asia & Pacific (IDA & IBRD countries)"},"countryiso3code":"TEA","date":"2020","value":91.9356312478865,"unit":"","obs_status":"","decimal":0},{"indicator":{"id":"SH.IMM.IDPT","value":"Immunization, DPT (% of children ages 12-23 months)"},"country":{"id":"XC","value":"Euro area"},"countryiso3code":"EMU","date":"2024","value":92.9074834597324,"unit":"","obs_status":"","decimal":0},{"indicator":{"id":"SH.IMM.IDPT","value":"Immunization, DPT (% of children ages 12-23 months)"},"country":{"id":"XC","value":"Euro area"},"countryiso3code":"EMU","date":"2023","value":93.1088677797329,"unit":"","obs_status":"","decimal":0},{"indicator":{"id":"SH.IMM.IDPT","value":"Immunization, DPT (% of children ages 12-23 months)"},"country":{"id":"XC","value":"Euro area"},"countryiso3code":"EMU","date":"2022","value":93.3640740638976,"unit":"","obs_status":"","decimal":0},{"indicator":{"id":"SH.IMM.IDPT","value":"Immunization, DPT (% of children ages 12-23 months)"},"country":{"id":"XC","value":"Euro area"},"countryiso3code":"EMU","date":"2021","value":93.9584108706771,"unit":"","obs_status":"","decimal":0},{"indicator":{"id":"SH.IMM.IDPT","value":"Immunization, DPT (% of children ages 12-23 months)"},"country":{"id":"XC","value":"Euro area"},"countryiso3code":"EMU","date":"2020","value":93.8612019055278,"unit":"","obs_status":"","decimal":0}]]